0 ./parts/I-2.dat
0 !LDRAW Unofficial_part
0 BFC CERTIFY CCW
3 16  48.000 0.000 0.000 0.000 0.000 12.000 48.000 0.000 12.000
3 16  0.000 0.000 12.000 48.000 0.000 0.000 0.000 0.000 0.000
3 16  48.000 -24.000 0.000 45.985 -12.541 0.000 48.000 0.000 0.000
3 16  48.000 -24.000 0.000 45.868 -13.618 0.000 45.985 -12.541 0.000
3 16  48.000 -24.000 0.000 45.636 -14.675 0.000 45.868 -13.618 0.000
3 16  48.000 -24.000 0.000 45.290 -15.701 0.000 45.636 -14.675 0.000
3 16  48.000 -24.000 0.000 44.835 -16.684 0.000 45.290 -15.701 0.000
3 16  48.000 -24.000 0.000 44.277 -17.612 0.000 44.835 -16.684 0.000
3 16  48.000 -24.000 0.000 43.621 -18.474 0.000 44.277 -17.612 0.000
3 16  48.000 -24.000 0.000 42.877 -19.260 0.000 43.621 -18.474 0.000
3 16  48.000 -24.000 0.000 42.052 -19.961 0.000 42.877 -19.260 0.000
3 16  48.000 -24.000 0.000 41.155 -20.569 0.000 42.052 -19.961 0.000
3 16  48.000 -24.000 0.000 40.199 -21.076 0.000 41.155 -20.569 0.000
3 16  48.000 -24.000 0.000 39.193 -21.477 0.000 40.199 -21.076 0.000
3 16  48.000 -24.000 0.000 38.150 -21.766 0.000 39.193 -21.477 0.000
3 16  48.000 -24.000 0.000 37.081 -21.941 0.000 38.150 -21.766 0.000
3 16  48.000 -24.000 0.000 36.000 -22.000 0.000 37.081 -21.941 0.000
3 16  48.000 -24.000 0.000 34.919 -21.941 0.000 36.000 -22.000 0.000
3 16  26.015 -12.541 0.000 21.985 -12.541 0.000 26.015 -11.459 0.000
3 16  26.132 -13.618 0.000 21.985 -12.541 0.000 26.015 -12.541 0.000
3 16  21.868 -13.618 0.000 26.132 -13.618 0.000 26.364 -14.675 0.000
3 16  21.636 -14.675 0.000 26.364 -14.675 0.000 26.710 -15.701 0.000
3 16  21.290 -15.701 0.000 26.710 -15.701 0.000 27.165 -16.684 0.000
3 16  20.835 -16.684 0.000 27.165 -16.684 0.000 27.723 -17.612 0.000
3 16  20.277 -17.612 0.000 27.723 -17.612 0.000 28.378 -18.474 0.000
3 16  19.622 -18.474 0.000 28.378 -18.474 0.000 29.123 -19.260 0.000
3 16  26.132 -13.618 0.000 21.868 -13.618 0.000 21.985 -12.541 0.000
3 16  18.877 -19.260 0.000 29.123 -19.260 0.000 29.948 -19.961 0.000
3 16  26.364 -14.675 0.000 21.636 -14.675 0.000 21.868 -13.618 0.000
3 16  18.052 -19.961 0.000 29.948 -19.961 0.000 30.845 -20.569 0.000
3 16  26.710 -15.701 0.000 21.290 -15.701 0.000 21.636 -14.675 0.000
3 16  17.156 -20.569 0.000 30.845 -20.569 0.000 31.801 -21.076 0.000
3 16  27.165 -16.684 0.000 20.835 -16.684 0.000 21.290 -15.701 0.000
3 16  27.723 -17.612 0.000 20.277 -17.612 0.000 20.835 -16.684 0.000
3 16  16.199 -21.076 0.000 31.801 -21.076 0.000 32.807 -21.477 0.000
3 16  28.378 -18.474 0.000 19.622 -18.474 0.000 20.277 -17.612 0.000
3 16  15.193 -21.477 0.000 32.807 -21.477 0.000 33.850 -21.766 0.000
3 16  29.123 -19.260 0.000 18.877 -19.260 0.000 19.622 -18.474 0.000
3 16  29.948 -19.961 0.000 18.052 -19.961 0.000 18.877 -19.260 0.000
3 16  14.150 -21.766 0.000 33.850 -21.766 0.000 34.919 -21.941 0.000
3 16  13.081 -21.941 0.000 34.919 -21.941 0.000 48.000 -24.000 0.000
3 16  30.845 -20.569 0.000 17.156 -20.569 0.000 18.052 -19.961 0.000
3 16  31.801 -21.076 0.000 16.199 -21.076 0.000 17.156 -20.569 0.000
3 16  32.807 -21.477 0.000 15.193 -21.477 0.000 16.199 -21.076 0.000
3 16  33.850 -21.766 0.000 14.150 -21.766 0.000 15.193 -21.477 0.000
3 16  34.919 -21.941 0.000 13.081 -21.941 0.000 14.150 -21.766 0.000
3 16  0.000 -24.000 0.000 13.081 -21.941 0.000 48.000 -24.000 0.000
3 16  13.081 -21.941 0.000 0.000 -24.000 0.000 12.000 -22.000 0.000
3 16  2.015 -12.541 0.000 0.000 -24.000 0.000 2.015 -11.459 0.000
3 16  2.132 -13.618 0.000 0.000 -24.000 0.000 2.015 -12.541 0.000
3 16  2.364 -14.675 0.000 0.000 -24.000 0.000 2.132 -13.618 0.000
3 16  2.710 -15.701 0.000 0.000 -24.000 0.000 2.364 -14.675 0.000
3 16  3.165 -16.684 0.000 0.000 -24.000 0.000 2.710 -15.701 0.000
3 16  3.723 -17.612 0.000 0.000 -24.000 0.000 3.165 -16.684 0.000
3 16  4.378 -18.474 0.000 0.000 -24.000 0.000 3.723 -17.612 0.000
3 16  5.123 -19.260 0.000 0.000 -24.000 0.000 4.378 -18.474 0.000
3 16  5.948 -19.961 0.000 0.000 -24.000 0.000 5.123 -19.260 0.000
3 16  6.844 -20.569 0.000 0.000 -24.000 0.000 5.948 -19.961 0.000
3 16  7.801 -21.076 0.000 0.000 -24.000 0.000 6.844 -20.569 0.000
3 16  8.807 -21.477 0.000 0.000 -24.000 0.000 7.801 -21.076 0.000
3 16  9.850 -21.766 0.000 0.000 -24.000 0.000 8.807 -21.477 0.000
3 16  10.919 -21.941 0.000 0.000 -24.000 0.000 9.850 -21.766 0.000
3 16  12.000 -22.000 0.000 0.000 -24.000 0.000 10.919 -21.941 0.000
3 16  45.985 -11.459 0.000 48.000 0.000 0.000 45.985 -12.541 0.000
3 16  45.868 -10.382 0.000 48.000 0.000 0.000 45.985 -11.459 0.000
3 16  45.636 -9.325 0.000 48.000 0.000 0.000 45.868 -10.382 0.000
3 16  45.290 -8.299 0.000 48.000 0.000 0.000 45.636 -9.325 0.000
3 16  44.835 -7.316 0.000 48.000 0.000 0.000 45.290 -8.299 0.000
3 16  44.277 -6.388 0.000 48.000 0.000 0.000 44.835 -7.316 0.000
3 16  43.621 -5.526 0.000 48.000 0.000 0.000 44.277 -6.388 0.000
3 16  42.877 -4.740 0.000 48.000 0.000 0.000 43.621 -5.526 0.000
3 16  42.052 -4.039 0.000 48.000 0.000 0.000 42.877 -4.740 0.000
3 16  41.155 -3.431 0.000 48.000 0.000 0.000 42.052 -4.039 0.000
3 16  40.199 -2.924 0.000 48.000 0.000 0.000 41.155 -3.431 0.000
3 16  39.193 -2.523 0.000 48.000 0.000 0.000 40.199 -2.924 0.000
3 16  38.150 -2.234 0.000 48.000 0.000 0.000 39.193 -2.523 0.000
3 16  37.081 -2.059 0.000 48.000 0.000 0.000 38.150 -2.234 0.000
3 16  36.000 -2.000 0.000 48.000 0.000 0.000 37.081 -2.059 0.000
3 16  34.919 -2.059 0.000 48.000 0.000 0.000 36.000 -2.000 0.000
3 16  21.985 -11.459 0.000 26.015 -11.459 0.000 21.985 -12.541 0.000
3 16  26.015 -11.459 0.000 21.985 -11.459 0.000 26.132 -10.382 0.000
3 16  21.868 -10.382 0.000 26.132 -10.382 0.000 21.985 -11.459 0.000
3 16  26.132 -10.382 0.000 21.868 -10.382 0.000 26.364 -9.325 0.000
3 16  21.636 -9.325 0.000 26.364 -9.325 0.000 21.868 -10.382 0.000
3 16  26.364 -9.325 0.000 21.636 -9.325 0.000 26.710 -8.299 0.000
3 16  21.290 -8.299 0.000 26.710 -8.299 0.000 21.636 -9.325 0.000
3 16  26.710 -8.299 0.000 21.290 -8.299 0.000 27.165 -7.316 0.000
3 16  20.835 -7.316 0.000 27.165 -7.316 0.000 21.290 -8.299 0.000
3 16  27.165 -7.316 0.000 20.835 -7.316 0.000 27.723 -6.388 0.000
3 16  20.277 -6.388 0.000 27.723 -6.388 0.000 20.835 -7.316 0.000
3 16  27.723 -6.388 0.000 20.277 -6.388 0.000 28.378 -5.526 0.000
3 16  19.622 -5.526 0.000 28.378 -5.526 0.000 20.277 -6.388 0.000
3 16  28.378 -5.526 0.000 19.622 -5.526 0.000 29.123 -4.740 0.000
3 16  18.877 -4.740 0.000 29.123 -4.740 0.000 19.622 -5.526 0.000
3 16  29.123 -4.740 0.000 18.877 -4.740 0.000 29.948 -4.039 0.000
3 16  18.052 -4.039 0.000 29.948 -4.039 0.000 18.877 -4.740 0.000
3 16  29.948 -4.039 0.000 18.052 -4.039 0.000 30.845 -3.431 0.000
3 16  17.156 -3.431 0.000 30.845 -3.431 0.000 18.052 -4.039 0.000
3 16  30.845 -3.431 0.000 17.156 -3.431 0.000 31.801 -2.924 0.000
3 16  16.199 -2.924 0.000 31.801 -2.924 0.000 17.156 -3.431 0.000
3 16  31.801 -2.924 0.000 16.199 -2.924 0.000 32.807 -2.523 0.000
3 16  15.193 -2.523 0.000 32.807 -2.523 0.000 16.199 -2.924 0.000
3 16  32.807 -2.523 0.000 15.193 -2.523 0.000 33.850 -2.234 0.000
3 16  14.150 -2.234 0.000 33.850 -2.234 0.000 15.193 -2.523 0.000
3 16  33.850 -2.234 0.000 14.150 -2.234 0.000 34.919 -2.059 0.000
3 16  13.081 -2.059 0.000 34.919 -2.059 0.000 14.150 -2.234 0.000
3 16  34.919 -2.059 0.000 13.081 -2.059 0.000 48.000 0.000 0.000
3 16  0.000 0.000 0.000 13.081 -2.059 0.000 12.000 -2.000 0.000
3 16  0.000 0.000 0.000 12.000 -2.000 0.000 10.919 -2.059 0.000
3 16  0.000 0.000 0.000 2.015 -11.459 0.000 0.000 -24.000 0.000
3 16  13.081 -2.059 0.000 0.000 0.000 0.000 48.000 0.000 0.000
3 16  9.850 -2.234 0.000 0.000 0.000 0.000 10.919 -2.059 0.000
3 16  8.807 -2.523 0.000 0.000 0.000 0.000 9.850 -2.234 0.000
3 16  7.801 -2.924 0.000 0.000 0.000 0.000 8.807 -2.523 0.000
3 16  6.844 -3.431 0.000 0.000 0.000 0.000 7.801 -2.924 0.000
3 16  5.948 -4.039 0.000 0.000 0.000 0.000 6.844 -3.431 0.000
3 16  5.123 -4.740 0.000 0.000 0.000 0.000 5.948 -4.039 0.000
3 16  4.378 -5.526 0.000 0.000 0.000 0.000 5.123 -4.740 0.000
3 16  3.723 -6.388 0.000 0.000 0.000 0.000 4.378 -5.526 0.000
3 16  3.165 -7.316 0.000 0.000 0.000 0.000 3.723 -6.388 0.000
3 16  2.710 -8.299 0.000 0.000 0.000 0.000 3.165 -7.316 0.000
3 16  2.364 -9.325 0.000 0.000 0.000 0.000 2.710 -8.299 0.000
3 16  2.132 -10.382 0.000 0.000 0.000 0.000 2.364 -9.325 0.000
3 16  2.015 -11.459 0.000 0.000 0.000 0.000 2.132 -10.382 0.000
3 16  48.000 0.000 12.000 45.985 -11.459 12.000 48.000 -24.000 12.000
3 16  48.000 0.000 12.000 45.868 -10.382 12.000 45.985 -11.459 12.000
3 16  48.000 0.000 12.000 45.636 -9.325 12.000 45.868 -10.382 12.000
3 16  48.000 0.000 12.000 45.290 -8.299 12.000 45.636 -9.325 12.000
3 16  48.000 0.000 12.000 44.835 -7.316 12.000 45.290 -8.299 12.000
3 16  48.000 0.000 12.000 44.277 -6.388 12.000 44.835 -7.316 12.000
3 16  48.000 0.000 12.000 43.621 -5.526 12.000 44.277 -6.388 12.000
3 16  48.000 0.000 12.000 42.877 -4.740 12.000 43.621 -5.526 12.000
3 16  48.000 0.000 12.000 42.052 -4.039 12.000 42.877 -4.740 12.000
3 16  48.000 0.000 12.000 41.155 -3.431 12.000 42.052 -4.039 12.000
3 16  48.000 0.000 12.000 40.199 -2.924 12.000 41.155 -3.431 12.000
3 16  48.000 0.000 12.000 39.193 -2.523 12.000 40.199 -2.924 12.000
3 16  48.000 0.000 12.000 38.150 -2.234 12.000 39.193 -2.523 12.000
3 16  48.000 0.000 12.000 37.081 -2.059 12.000 38.150 -2.234 12.000
3 16  48.000 0.000 12.000 36.000 -2.000 12.000 37.081 -2.059 12.000
3 16  48.000 0.000 12.000 34.919 -2.059 12.000 36.000 -2.000 12.000
3 16  26.015 -11.459 12.000 21.985 -11.459 12.000 26.015 -12.541 12.000
3 16  26.132 -10.382 12.000 21.985 -11.459 12.000 26.015 -11.459 12.000
3 16  21.868 -10.382 12.000 26.132 -10.382 12.000 26.364 -9.325 12.000
3 16  21.636 -9.325 12.000 26.364 -9.325 12.000 26.710 -8.299 12.000
3 16  21.290 -8.299 12.000 26.710 -8.299 12.000 27.165 -7.316 12.000
3 16  20.835 -7.316 12.000 27.165 -7.316 12.000 27.723 -6.388 12.000
3 16  20.277 -6.388 12.000 27.723 -6.388 12.000 28.378 -5.526 12.000
3 16  19.622 -5.526 12.000 28.378 -5.526 12.000 29.123 -4.740 12.000
3 16  26.132 -10.382 12.000 21.868 -10.382 12.000 21.985 -11.459 12.000
3 16  18.877 -4.740 12.000 29.123 -4.740 12.000 29.948 -4.039 12.000
3 16  26.364 -9.325 12.000 21.636 -9.325 12.000 21.868 -10.382 12.000
3 16  18.052 -4.039 12.000 29.948 -4.039 12.000 30.845 -3.431 12.000
3 16  26.710 -8.299 12.000 21.290 -8.299 12.000 21.636 -9.325 12.000
3 16  17.156 -3.431 12.000 30.845 -3.431 12.000 31.801 -2.924 12.000
3 16  27.165 -7.316 12.000 20.835 -7.316 12.000 21.290 -8.299 12.000
3 16  27.723 -6.388 12.000 20.277 -6.388 12.000 20.835 -7.316 12.000
3 16  16.199 -2.924 12.000 31.801 -2.924 12.000 32.807 -2.523 12.000
3 16  28.378 -5.526 12.000 19.622 -5.526 12.000 20.277 -6.388 12.000
3 16  15.193 -2.523 12.000 32.807 -2.523 12.000 33.850 -2.234 12.000
3 16  29.123 -4.740 12.000 18.877 -4.740 12.000 19.622 -5.526 12.000
3 16  29.948 -4.039 12.000 18.052 -4.039 12.000 18.877 -4.740 12.000
3 16  14.150 -2.234 12.000 33.850 -2.234 12.000 34.919 -2.059 12.000
3 16  13.081 -2.059 12.000 34.919 -2.059 12.000 48.000 0.000 12.000
3 16  30.845 -3.431 12.000 17.156 -3.431 12.000 18.052 -4.039 12.000
3 16  31.801 -2.924 12.000 16.199 -2.924 12.000 17.156 -3.431 12.000
3 16  32.807 -2.523 12.000 15.193 -2.523 12.000 16.199 -2.924 12.000
3 16  33.850 -2.234 12.000 14.150 -2.234 12.000 15.193 -2.523 12.000
3 16  34.919 -2.059 12.000 13.081 -2.059 12.000 14.150 -2.234 12.000
3 16  0.000 0.000 12.000 13.081 -2.059 12.000 48.000 0.000 12.000
3 16  13.081 -2.059 12.000 0.000 0.000 12.000 12.000 -2.000 12.000
3 16  2.015 -11.459 12.000 0.000 0.000 12.000 2.015 -12.541 12.000
3 16  2.132 -10.382 12.000 0.000 0.000 12.000 2.015 -11.459 12.000
3 16  2.364 -9.325 12.000 0.000 0.000 12.000 2.132 -10.382 12.000
3 16  2.710 -8.299 12.000 0.000 0.000 12.000 2.364 -9.325 12.000
3 16  3.165 -7.316 12.000 0.000 0.000 12.000 2.710 -8.299 12.000
3 16  3.723 -6.388 12.000 0.000 0.000 12.000 3.165 -7.316 12.000
3 16  4.378 -5.526 12.000 0.000 0.000 12.000 3.723 -6.388 12.000
3 16  5.123 -4.740 12.000 0.000 0.000 12.000 4.378 -5.526 12.000
3 16  5.948 -4.039 12.000 0.000 0.000 12.000 5.123 -4.740 12.000
3 16  6.844 -3.431 12.000 0.000 0.000 12.000 5.948 -4.039 12.000
3 16  7.801 -2.924 12.000 0.000 0.000 12.000 6.844 -3.431 12.000
3 16  8.807 -2.523 12.000 0.000 0.000 12.000 7.801 -2.924 12.000
3 16  9.850 -2.234 12.000 0.000 0.000 12.000 8.807 -2.523 12.000
3 16  10.919 -2.059 12.000 0.000 0.000 12.000 9.850 -2.234 12.000
3 16  12.000 -2.000 12.000 0.000 0.000 12.000 10.919 -2.059 12.000
3 16  45.985 -12.541 12.000 48.000 -24.000 12.000 45.985 -11.459 12.000
3 16  45.868 -13.618 12.000 48.000 -24.000 12.000 45.985 -12.541 12.000
3 16  45.636 -14.675 12.000 48.000 -24.000 12.000 45.868 -13.618 12.000
3 16  45.290 -15.701 12.000 48.000 -24.000 12.000 45.636 -14.675 12.000
3 16  44.835 -16.684 12.000 48.000 -24.000 12.000 45.290 -15.701 12.000
3 16  44.277 -17.612 12.000 48.000 -24.000 12.000 44.835 -16.684 12.000
3 16  43.621 -18.474 12.000 48.000 -24.000 12.000 44.277 -17.612 12.000
3 16  42.877 -19.260 12.000 48.000 -24.000 12.000 43.621 -18.474 12.000
3 16  42.052 -19.961 12.000 48.000 -24.000 12.000 42.877 -19.260 12.000
3 16  41.155 -20.569 12.000 48.000 -24.000 12.000 42.052 -19.961 12.000
3 16  40.199 -21.076 12.000 48.000 -24.000 12.000 41.155 -20.569 12.000
3 16  39.193 -21.477 12.000 48.000 -24.000 12.000 40.199 -21.076 12.000
3 16  38.150 -21.766 12.000 48.000 -24.000 12.000 39.193 -21.477 12.000
3 16  37.081 -21.941 12.000 48.000 -24.000 12.000 38.150 -21.766 12.000
3 16  36.000 -22.000 12.000 48.000 -24.000 12.000 37.081 -21.941 12.000
3 16  34.919 -21.941 12.000 48.000 -24.000 12.000 36.000 -22.000 12.000
3 16  21.985 -12.541 12.000 26.015 -12.541 12.000 21.985 -11.459 12.000
3 16  26.015 -12.541 12.000 21.985 -12.541 12.000 26.132 -13.618 12.000
3 16  21.868 -13.618 12.000 26.132 -13.618 12.000 21.985 -12.541 12.000
3 16  26.132 -13.618 12.000 21.868 -13.618 12.000 26.364 -14.675 12.000
3 16  21.636 -14.675 12.000 26.364 -14.675 12.000 21.868 -13.618 12.000
3 16  26.364 -14.675 12.000 21.636 -14.675 12.000 26.710 -15.701 12.000
3 16  21.290 -15.701 12.000 26.710 -15.701 12.000 21.636 -14.675 12.000
3 16  26.710 -15.701 12.000 21.290 -15.701 12.000 27.165 -16.684 12.000
3 16  20.835 -16.684 12.000 27.165 -16.684 12.000 21.290 -15.701 12.000
3 16  27.165 -16.684 12.000 20.835 -16.684 12.000 27.723 -17.612 12.000
3 16  20.277 -17.612 12.000 27.723 -17.612 12.000 20.835 -16.684 12.000
3 16  27.723 -17.612 12.000 20.277 -17.612 12.000 28.378 -18.474 12.000
3 16  19.622 -18.474 12.000 28.378 -18.474 12.000 20.277 -17.612 12.000
3 16  28.378 -18.474 12.000 19.622 -18.474 12.000 29.123 -19.260 12.000
3 16  18.877 -19.260 12.000 29.123 -19.260 12.000 19.622 -18.474 12.000
3 16  29.123 -19.260 12.000 18.877 -19.260 12.000 29.948 -19.961 12.000
3 16  18.052 -19.961 12.000 29.948 -19.961 12.000 18.877 -19.260 12.000
3 16  29.948 -19.961 12.000 18.052 -19.961 12.000 30.845 -20.569 12.000
3 16  17.156 -20.569 12.000 30.845 -20.569 12.000 18.052 -19.961 12.000
3 16  30.845 -20.569 12.000 17.156 -20.569 12.000 31.801 -21.076 12.000
3 16  16.199 -21.076 12.000 31.801 -21.076 12.000 17.156 -20.569 12.000
3 16  31.801 -21.076 12.000 16.199 -21.076 12.000 32.807 -21.477 12.000
3 16  15.193 -21.477 12.000 32.807 -21.477 12.000 16.199 -21.076 12.000
3 16  32.807 -21.477 12.000 15.193 -21.477 12.000 33.850 -21.766 12.000
3 16  14.150 -21.766 12.000 33.850 -21.766 12.000 15.193 -21.477 12.000
3 16  33.850 -21.766 12.000 14.150 -21.766 12.000 34.919 -21.941 12.000
3 16  13.081 -21.941 12.000 34.919 -21.941 12.000 14.150 -21.766 12.000
3 16  34.919 -21.941 12.000 13.081 -21.941 12.000 48.000 -24.000 12.000
3 16  0.000 -24.000 12.000 13.081 -21.941 12.000 12.000 -22.000 12.000
3 16  0.000 -24.000 12.000 12.000 -22.000 12.000 10.919 -21.941 12.000
3 16  0.000 -24.000 12.000 2.015 -12.541 12.000 0.000 0.000 12.000
3 16  13.081 -21.941 12.000 0.000 -24.000 12.000 48.000 -24.000 12.000
3 16  9.850 -21.766 12.000 0.000 -24.000 12.000 10.919 -21.941 12.000
3 16  8.807 -21.477 12.000 0.000 -24.000 12.000 9.850 -21.766 12.000
3 16  7.801 -21.076 12.000 0.000 -24.000 12.000 8.807 -21.477 12.000
3 16  6.844 -20.569 12.000 0.000 -24.000 12.000 7.801 -21.076 12.000
3 16  5.948 -19.961 12.000 0.000 -24.000 12.000 6.844 -20.569 12.000
3 16  5.123 -19.260 12.000 0.000 -24.000 12.000 5.948 -19.961 12.000
3 16  4.378 -18.474 12.000 0.000 -24.000 12.000 5.123 -19.260 12.000
3 16  3.723 -17.612 12.000 0.000 -24.000 12.000 4.378 -18.474 12.000
3 16  3.165 -16.684 12.000 0.000 -24.000 12.000 3.723 -17.612 12.000
3 16  2.710 -15.701 12.000 0.000 -24.000 12.000 3.165 -16.684 12.000
3 16  2.364 -14.675 12.000 0.000 -24.000 12.000 2.710 -15.701 12.000
3 16  2.132 -13.618 12.000 0.000 -24.000 12.000 2.364 -14.675 12.000
3 16  2.015 -12.541 12.000 0.000 -24.000 12.000 2.132 -13.618 12.000
3 16  0.000 -24.000 0.000 0.000 0.000 12.000 0.000 0.000 0.000
3 16  0.000 0.000 12.000 0.000 -24.000 0.000 0.000 -24.000 12.000
3 16  13.720 -4.187 6.000 12.865 -4.047 6.000 13.081 -2.059 0.000
3 16  14.150 -2.234 0.000 13.720 -4.187 6.000 13.081 -2.059 0.000
3 16  14.554 -4.419 6.000 13.720 -4.187 6.000 14.150 -2.234 0.000
3 16  15.193 -2.523 0.000 14.554 -4.419 6.000 14.150 -2.234 0.000
3 16  15.359 -4.739 6.000 14.554 -4.419 6.000 15.193 -2.523 0.000
3 16  16.199 -2.924 0.000 15.359 -4.739 6.000 15.193 -2.523 0.000
3 16  16.124 -5.145 6.000 15.359 -4.739 6.000 16.199 -2.924 0.000
3 16  17.156 -3.431 0.000 16.124 -5.145 6.000 16.199 -2.924 0.000
3 16  16.841 -5.631 6.000 16.124 -5.145 6.000 17.156 -3.431 0.000
3 16  18.052 -4.039 0.000 16.841 -5.631 6.000 17.156 -3.431 0.000
3 16  17.502 -6.192 6.000 16.841 -5.631 6.000 18.052 -4.039 0.000
3 16  18.877 -4.740 0.000 17.502 -6.192 6.000 18.052 -4.039 0.000
3 16  18.097 -6.821 6.000 17.502 -6.192 6.000 18.877 -4.740 0.000
3 16  19.622 -5.526 0.000 18.097 -6.821 6.000 18.877 -4.740 0.000
3 16  18.622 -7.511 6.000 18.097 -6.821 6.000 19.622 -5.526 0.000
3 16  20.277 -6.388 0.000 18.622 -7.511 6.000 19.622 -5.526 0.000
3 16  19.068 -8.253 6.000 18.622 -7.511 6.000 20.277 -6.388 0.000
3 16  20.835 -7.316 0.000 19.068 -8.253 6.000 20.277 -6.388 0.000
3 16  19.432 -9.039 6.000 19.068 -8.253 6.000 20.835 -7.316 0.000
3 16  21.290 -8.299 0.000 19.432 -9.039 6.000 20.835 -7.316 0.000
3 16  19.708 -9.860 6.000 19.432 -9.039 6.000 21.290 -8.299 0.000
3 16  21.636 -9.325 0.000 19.708 -9.860 6.000 21.290 -8.299 0.000
3 16  19.895 -10.706 6.000 19.708 -9.860 6.000 21.636 -9.325 0.000
3 16  21.868 -10.382 0.000 19.895 -10.706 6.000 21.636 -9.325 0.000
3 16  19.988 -11.567 6.000 19.895 -10.706 6.000 21.868 -10.382 0.000
3 16  21.985 -11.459 0.000 19.988 -11.567 6.000 21.868 -10.382 0.000
3 16  21.985 -11.459 0.000 19.988 -12.433 6.000 19.988 -11.567 6.000
3 16  19.988 -12.433 6.000 21.985 -11.459 0.000 21.985 -12.541 0.000
3 16  21.985 -12.541 0.000 19.895 -13.294 6.000 19.988 -12.433 6.000
3 16  21.868 -13.618 0.000 19.895 -13.294 6.000 21.985 -12.541 0.000
3 16  21.868 -13.618 0.000 19.708 -14.140 6.000 19.895 -13.294 6.000
3 16  21.636 -14.675 0.000 19.708 -14.140 6.000 21.868 -13.618 0.000
3 16  21.636 -14.675 0.000 19.432 -14.961 6.000 19.708 -14.140 6.000
3 16  21.290 -15.701 0.000 19.432 -14.961 6.000 21.636 -14.675 0.000
3 16  21.290 -15.701 0.000 19.068 -15.747 6.000 19.432 -14.961 6.000
3 16  20.835 -16.684 0.000 19.068 -15.747 6.000 21.290 -15.701 0.000
3 16  20.835 -16.684 0.000 18.622 -16.489 6.000 19.068 -15.747 6.000
3 16  20.835 -16.684 0.000 20.277 -17.612 0.000 18.622 -16.489 6.000
3 16  20.277 -17.612 0.000 18.097 -17.179 6.000 18.622 -16.489 6.000
3 16  20.277 -17.612 0.000 19.622 -18.474 0.000 18.097 -17.179 6.000
3 16  19.622 -18.474 0.000 17.502 -17.808 6.000 18.097 -17.179 6.000
3 16  19.622 -18.474 0.000 18.877 -19.260 0.000 17.502 -17.808 6.000
3 16  18.877 -19.260 0.000 16.841 -18.369 6.000 17.502 -17.808 6.000
3 16  18.877 -19.260 0.000 18.052 -19.961 0.000 16.841 -18.369 6.000
3 16  18.052 -19.961 0.000 16.124 -18.855 6.000 16.841 -18.369 6.000
3 16  18.052 -19.961 0.000 17.156 -20.569 0.000 16.124 -18.855 6.000
3 16  17.156 -20.569 0.000 15.359 -19.261 6.000 16.124 -18.855 6.000
3 16  17.156 -20.569 0.000 16.199 -21.076 0.000 15.359 -19.261 6.000
3 16  16.199 -21.076 0.000 14.554 -19.581 6.000 15.359 -19.261 6.000
3 16  16.199 -21.076 0.000 15.193 -21.477 0.000 14.554 -19.581 6.000
3 16  15.193 -21.477 0.000 13.720 -19.813 6.000 14.554 -19.581 6.000
3 16  15.193 -21.477 0.000 14.150 -21.766 0.000 13.720 -19.813 6.000
3 16  14.150 -21.766 0.000 12.865 -19.953 6.000 13.720 -19.813 6.000
3 16  14.150 -21.766 0.000 13.081 -21.941 0.000 12.865 -19.953 6.000
3 16  13.081 -21.941 0.000 12.000 -20.000 6.000 12.865 -19.953 6.000
3 16  13.081 -21.941 0.000 12.000 -22.000 0.000 12.000 -20.000 6.000
3 16  12.000 -20.000 6.000 12.000 -22.000 0.000 11.135 -19.953 6.000
3 16  12.000 -22.000 0.000 10.919 -21.941 0.000 11.135 -19.953 6.000
3 16  11.135 -19.953 6.000 10.919 -21.941 0.000 10.280 -19.813 6.000
3 16  10.919 -21.941 0.000 9.850 -21.766 0.000 10.280 -19.813 6.000
3 16  10.280 -19.813 6.000 9.850 -21.766 0.000 9.446 -19.581 6.000
3 16  9.850 -21.766 0.000 8.807 -21.477 0.000 9.446 -19.581 6.000
3 16  9.446 -19.581 6.000 8.807 -21.477 0.000 8.641 -19.261 6.000
3 16  8.807 -21.477 0.000 7.801 -21.076 0.000 8.641 -19.261 6.000
3 16  8.641 -19.261 6.000 7.801 -21.076 0.000 7.876 -18.855 6.000
3 16  7.801 -21.076 0.000 6.844 -20.569 0.000 7.876 -18.855 6.000
3 16  7.876 -18.855 6.000 6.844 -20.569 0.000 7.159 -18.369 6.000
3 16  6.844 -20.569 0.000 5.948 -19.961 0.000 7.159 -18.369 6.000
3 16  7.159 -18.369 6.000 5.948 -19.961 0.000 6.498 -17.808 6.000
3 16  5.948 -19.961 0.000 5.123 -19.260 0.000 6.498 -17.808 6.000
3 16  6.498 -17.808 6.000 5.123 -19.260 0.000 5.903 -17.179 6.000
3 16  5.123 -19.260 0.000 4.378 -18.474 0.000 5.903 -17.179 6.000
3 16  5.903 -17.179 6.000 4.378 -18.474 0.000 5.378 -16.489 6.000
3 16  4.378 -18.474 0.000 3.723 -17.612 0.000 5.378 -16.489 6.000
3 16  5.378 -16.489 6.000 3.723 -17.612 0.000 4.932 -15.747 6.000
3 16  3.723 -17.612 0.000 3.165 -16.684 0.000 4.932 -15.747 6.000
3 16  4.932 -15.747 6.000 3.165 -16.684 0.000 4.568 -14.961 6.000
3 16  3.165 -16.684 0.000 2.710 -15.701 0.000 4.568 -14.961 6.000
3 16  4.568 -14.961 6.000 2.710 -15.701 0.000 4.292 -14.140 6.000
3 16  2.710 -15.701 0.000 2.364 -14.675 0.000 4.292 -14.140 6.000
3 16  4.292 -14.140 6.000 2.364 -14.675 0.000 4.105 -13.294 6.000
3 16  2.364 -14.675 0.000 2.132 -13.618 0.000 4.105 -13.294 6.000
3 16  4.105 -13.294 6.000 2.132 -13.618 0.000 4.012 -12.433 6.000
3 16  2.132 -13.618 0.000 2.015 -12.541 0.000 4.012 -12.433 6.000
3 16  4.012 -12.433 6.000 2.015 -11.459 0.000 4.012 -11.567 6.000
3 16  2.015 -11.459 0.000 4.012 -12.433 6.000 2.015 -12.541 0.000
3 16  4.012 -11.567 6.000 2.015 -11.459 0.000 4.105 -10.706 6.000
3 16  4.105 -10.706 6.000 2.015 -11.459 0.000 2.132 -10.382 0.000
3 16  4.105 -10.706 6.000 2.132 -10.382 0.000 4.292 -9.860 6.000
3 16  4.292 -9.860 6.000 2.132 -10.382 0.000 2.364 -9.325 0.000
3 16  4.292 -9.860 6.000 2.364 -9.325 0.000 4.568 -9.039 6.000
3 16  4.568 -9.039 6.000 2.364 -9.325 0.000 2.710 -8.299 0.000
3 16  4.568 -9.039 6.000 2.710 -8.299 0.000 4.932 -8.253 6.000
3 16  4.932 -8.253 6.000 2.710 -8.299 0.000 3.165 -7.316 0.000
3 16  5.378 -7.511 6.000 4.932 -8.253 6.000 3.165 -7.316 0.000
3 16  5.378 -7.511 6.000 3.165 -7.316 0.000 3.723 -6.388 0.000
3 16  5.903 -6.821 6.000 5.378 -7.511 6.000 3.723 -6.388 0.000
3 16  5.903 -6.821 6.000 3.723 -6.388 0.000 4.378 -5.526 0.000
3 16  6.498 -6.192 6.000 5.903 -6.821 6.000 4.378 -5.526 0.000
3 16  6.498 -6.192 6.000 4.378 -5.526 0.000 5.123 -4.740 0.000
3 16  7.159 -5.631 6.000 6.498 -6.192 6.000 5.123 -4.740 0.000
3 16  7.159 -5.631 6.000 5.123 -4.740 0.000 5.948 -4.039 0.000
3 16  7.876 -5.145 6.000 7.159 -5.631 6.000 5.948 -4.039 0.000
3 16  7.876 -5.145 6.000 5.948 -4.039 0.000 6.844 -3.431 0.000
3 16  8.641 -4.739 6.000 7.876 -5.145 6.000 6.844 -3.431 0.000
3 16  8.641 -4.739 6.000 6.844 -3.431 0.000 7.801 -2.924 0.000
3 16  9.446 -4.419 6.000 8.641 -4.739 6.000 7.801 -2.924 0.000
3 16  9.446 -4.419 6.000 7.801 -2.924 0.000 8.807 -2.523 0.000
3 16  10.280 -4.187 6.000 9.446 -4.419 6.000 8.807 -2.523 0.000
3 16  10.280 -4.187 6.000 8.807 -2.523 0.000 9.850 -2.234 0.000
3 16  11.135 -4.047 6.000 10.280 -4.187 6.000 9.850 -2.234 0.000
3 16  11.135 -4.047 6.000 9.850 -2.234 0.000 10.919 -2.059 0.000
3 16  12.000 -4.000 6.000 11.135 -4.047 6.000 10.919 -2.059 0.000
3 16  12.000 -4.000 6.000 10.919 -2.059 0.000 12.000 -2.000 0.000
3 16  12.865 -4.047 6.000 12.000 -4.000 6.000 12.000 -2.000 0.000
3 16  13.081 -2.059 0.000 12.865 -4.047 6.000 12.000 -2.000 0.000
3 16  12.865 -19.953 6.000 13.081 -21.941 12.000 13.720 -19.813 6.000
3 16  13.081 -21.941 12.000 14.150 -21.766 12.000 13.720 -19.813 6.000
3 16  13.720 -19.813 6.000 14.150 -21.766 12.000 14.554 -19.581 6.000
3 16  14.150 -21.766 12.000 15.193 -21.477 12.000 14.554 -19.581 6.000
3 16  14.554 -19.581 6.000 15.193 -21.477 12.000 15.359 -19.261 6.000
3 16  15.193 -21.477 12.000 16.199 -21.076 12.000 15.359 -19.261 6.000
3 16  15.359 -19.261 6.000 16.199 -21.076 12.000 16.124 -18.855 6.000
3 16  16.199 -21.076 12.000 17.156 -20.569 12.000 16.124 -18.855 6.000
3 16  16.124 -18.855 6.000 17.156 -20.569 12.000 16.841 -18.369 6.000
3 16  17.156 -20.569 12.000 18.052 -19.961 12.000 16.841 -18.369 6.000
3 16  16.841 -18.369 6.000 18.052 -19.961 12.000 17.502 -17.808 6.000
3 16  18.052 -19.961 12.000 18.877 -19.260 12.000 17.502 -17.808 6.000
3 16  17.502 -17.808 6.000 18.877 -19.260 12.000 18.097 -17.179 6.000
3 16  18.877 -19.260 12.000 19.622 -18.474 12.000 18.097 -17.179 6.000
3 16  18.097 -17.179 6.000 19.622 -18.474 12.000 18.622 -16.489 6.000
3 16  19.622 -18.474 12.000 20.277 -17.612 12.000 18.622 -16.489 6.000
3 16  18.622 -16.489 6.000 20.277 -17.612 12.000 19.068 -15.747 6.000
3 16  20.277 -17.612 12.000 20.835 -16.684 12.000 19.068 -15.747 6.000
3 16  19.068 -15.747 6.000 20.835 -16.684 12.000 19.432 -14.961 6.000
3 16  20.835 -16.684 12.000 21.290 -15.701 12.000 19.432 -14.961 6.000
3 16  19.432 -14.961 6.000 21.290 -15.701 12.000 19.708 -14.140 6.000
3 16  21.290 -15.701 12.000 21.636 -14.675 12.000 19.708 -14.140 6.000
3 16  19.708 -14.140 6.000 21.636 -14.675 12.000 19.895 -13.294 6.000
3 16  21.636 -14.675 12.000 21.868 -13.618 12.000 19.895 -13.294 6.000
3 16  19.895 -13.294 6.000 21.868 -13.618 12.000 19.988 -12.433 6.000
3 16  21.868 -13.618 12.000 21.985 -12.541 12.000 19.988 -12.433 6.000
3 16  19.988 -12.433 6.000 21.985 -11.459 12.000 19.988 -11.567 6.000
3 16  21.985 -11.459 12.000 19.988 -12.433 6.000 21.985 -12.541 12.000
3 16  19.988 -11.567 6.000 21.985 -11.459 12.000 19.895 -10.706 6.000
3 16  19.895 -10.706 6.000 21.985 -11.459 12.000 21.868 -10.382 12.000
3 16  19.895 -10.706 6.000 21.868 -10.382 12.000 19.708 -9.860 6.000
3 16  19.708 -9.860 6.000 21.868 -10.382 12.000 21.636 -9.325 12.000
3 16  19.708 -9.860 6.000 21.636 -9.325 12.000 19.432 -9.039 6.000
3 16  19.432 -9.039 6.000 21.636 -9.325 12.000 21.290 -8.299 12.000
3 16  19.432 -9.039 6.000 21.290 -8.299 12.000 19.068 -8.253 6.000
3 16  19.068 -8.253 6.000 21.290 -8.299 12.000 20.835 -7.316 12.000
3 16  18.622 -7.511 6.000 19.068 -8.253 6.000 20.835 -7.316 12.000
3 16  18.622 -7.511 6.000 20.835 -7.316 12.000 20.277 -6.388 12.000
3 16  18.097 -6.821 6.000 18.622 -7.511 6.000 20.277 -6.388 12.000
3 16  18.097 -6.821 6.000 20.277 -6.388 12.000 19.622 -5.526 12.000
3 16  17.502 -6.192 6.000 18.097 -6.821 6.000 19.622 -5.526 12.000
3 16  17.502 -6.192 6.000 19.622 -5.526 12.000 18.877 -4.740 12.000
3 16  16.841 -5.631 6.000 17.502 -6.192 6.000 18.877 -4.740 12.000
3 16  16.841 -5.631 6.000 18.877 -4.740 12.000 18.052 -4.039 12.000
3 16  16.124 -5.145 6.000 16.841 -5.631 6.000 18.052 -4.039 12.000
3 16  16.124 -5.145 6.000 18.052 -4.039 12.000 17.156 -3.431 12.000
3 16  15.359 -4.739 6.000 16.124 -5.145 6.000 17.156 -3.431 12.000
3 16  15.359 -4.739 6.000 17.156 -3.431 12.000 16.199 -2.924 12.000
3 16  14.554 -4.419 6.000 15.359 -4.739 6.000 16.199 -2.924 12.000
3 16  14.554 -4.419 6.000 16.199 -2.924 12.000 15.193 -2.523 12.000
3 16  13.720 -4.187 6.000 14.554 -4.419 6.000 15.193 -2.523 12.000
3 16  13.720 -4.187 6.000 15.193 -2.523 12.000 14.150 -2.234 12.000
3 16  12.865 -4.047 6.000 13.720 -4.187 6.000 14.150 -2.234 12.000
3 16  12.865 -4.047 6.000 14.150 -2.234 12.000 13.081 -2.059 12.000
3 16  12.000 -4.000 6.000 12.865 -4.047 6.000 13.081 -2.059 12.000
3 16  12.000 -4.000 6.000 13.081 -2.059 12.000 12.000 -2.000 12.000
3 16  11.135 -4.047 6.000 12.000 -4.000 6.000 12.000 -2.000 12.000
3 16  10.919 -2.059 12.000 11.135 -4.047 6.000 12.000 -2.000 12.000
3 16  10.280 -4.187 6.000 11.135 -4.047 6.000 10.919 -2.059 12.000
3 16  9.850 -2.234 12.000 10.280 -4.187 6.000 10.919 -2.059 12.000
3 16  9.446 -4.419 6.000 10.280 -4.187 6.000 9.850 -2.234 12.000
3 16  8.807 -2.523 12.000 9.446 -4.419 6.000 9.850 -2.234 12.000
3 16  8.641 -4.739 6.000 9.446 -4.419 6.000 8.807 -2.523 12.000
3 16  7.801 -2.924 12.000 8.641 -4.739 6.000 8.807 -2.523 12.000
3 16  7.876 -5.145 6.000 8.641 -4.739 6.000 7.801 -2.924 12.000
3 16  6.844 -3.431 12.000 7.876 -5.145 6.000 7.801 -2.924 12.000
3 16  7.159 -5.631 6.000 7.876 -5.145 6.000 6.844 -3.431 12.000
3 16  5.948 -4.039 12.000 7.159 -5.631 6.000 6.844 -3.431 12.000
3 16  6.498 -6.192 6.000 7.159 -5.631 6.000 5.948 -4.039 12.000
3 16  5.123 -4.740 12.000 6.498 -6.192 6.000 5.948 -4.039 12.000
3 16  5.903 -6.821 6.000 6.498 -6.192 6.000 5.123 -4.740 12.000
3 16  4.378 -5.526 12.000 5.903 -6.821 6.000 5.123 -4.740 12.000
3 16  5.378 -7.511 6.000 5.903 -6.821 6.000 4.378 -5.526 12.000
3 16  3.723 -6.388 12.000 5.378 -7.511 6.000 4.378 -5.526 12.000
3 16  4.932 -8.253 6.000 5.378 -7.511 6.000 3.723 -6.388 12.000
3 16  3.165 -7.316 12.000 4.932 -8.253 6.000 3.723 -6.388 12.000
3 16  4.568 -9.039 6.000 4.932 -8.253 6.000 3.165 -7.316 12.000
3 16  2.710 -8.299 12.000 4.568 -9.039 6.000 3.165 -7.316 12.000
3 16  4.292 -9.860 6.000 4.568 -9.039 6.000 2.710 -8.299 12.000
3 16  2.364 -9.325 12.000 4.292 -9.860 6.000 2.710 -8.299 12.000
3 16  4.105 -10.706 6.000 4.292 -9.860 6.000 2.364 -9.325 12.000
3 16  2.132 -10.382 12.000 4.105 -10.706 6.000 2.364 -9.325 12.000
3 16  4.012 -11.567 6.000 4.105 -10.706 6.000 2.132 -10.382 12.000
3 16  2.015 -11.459 12.000 4.012 -11.567 6.000 2.132 -10.382 12.000
3 16  2.015 -11.459 12.000 4.012 -12.433 6.000 4.012 -11.567 6.000
3 16  4.012 -12.433 6.000 2.015 -11.459 12.000 2.015 -12.541 12.000
3 16  2.015 -12.541 12.000 4.105 -13.294 6.000 4.012 -12.433 6.000
3 16  2.132 -13.618 12.000 4.105 -13.294 6.000 2.015 -12.541 12.000
3 16  2.132 -13.618 12.000 4.292 -14.140 6.000 4.105 -13.294 6.000
3 16  2.364 -14.675 12.000 4.292 -14.140 6.000 2.132 -13.618 12.000
3 16  2.364 -14.675 12.000 4.568 -14.961 6.000 4.292 -14.140 6.000
3 16  2.710 -15.701 12.000 4.568 -14.961 6.000 2.364 -14.675 12.000
3 16  2.710 -15.701 12.000 4.932 -15.747 6.000 4.568 -14.961 6.000
3 16  3.165 -16.684 12.000 4.932 -15.747 6.000 2.710 -15.701 12.000
3 16  3.165 -16.684 12.000 5.378 -16.489 6.000 4.932 -15.747 6.000
3 16  3.165 -16.684 12.000 3.723 -17.612 12.000 5.378 -16.489 6.000
3 16  3.723 -17.612 12.000 5.903 -17.179 6.000 5.378 -16.489 6.000
3 16  3.723 -17.612 12.000 4.378 -18.474 12.000 5.903 -17.179 6.000
3 16  4.378 -18.474 12.000 6.498 -17.808 6.000 5.903 -17.179 6.000
3 16  4.378 -18.474 12.000 5.123 -19.260 12.000 6.498 -17.808 6.000
3 16  5.123 -19.260 12.000 7.159 -18.369 6.000 6.498 -17.808 6.000
3 16  5.123 -19.260 12.000 5.948 -19.961 12.000 7.159 -18.369 6.000
3 16  5.948 -19.961 12.000 7.876 -18.855 6.000 7.159 -18.369 6.000
3 16  5.948 -19.961 12.000 6.844 -20.569 12.000 7.876 -18.855 6.000
3 16  6.844 -20.569 12.000 8.641 -19.261 6.000 7.876 -18.855 6.000
3 16  6.844 -20.569 12.000 7.801 -21.076 12.000 8.641 -19.261 6.000
3 16  7.801 -21.076 12.000 9.446 -19.581 6.000 8.641 -19.261 6.000
3 16  7.801 -21.076 12.000 8.807 -21.477 12.000 9.446 -19.581 6.000
3 16  8.807 -21.477 12.000 10.280 -19.813 6.000 9.446 -19.581 6.000
3 16  8.807 -21.477 12.000 9.850 -21.766 12.000 10.280 -19.813 6.000
3 16  9.850 -21.766 12.000 11.135 -19.953 6.000 10.280 -19.813 6.000
3 16  9.850 -21.766 12.000 10.919 -21.941 12.000 11.135 -19.953 6.000
3 16  10.919 -21.941 12.000 12.000 -20.000 6.000 11.135 -19.953 6.000
3 16  10.919 -21.941 12.000 12.000 -22.000 12.000 12.000 -20.000 6.000
3 16  12.000 -20.000 6.000 12.000 -22.000 12.000 12.865 -19.953 6.000
3 16  12.000 -22.000 12.000 13.081 -21.941 12.000 12.865 -19.953 6.000
3 16  0.000 -24.000 0.000 48.000 -24.000 12.000 0.000 -24.000 12.000
3 16  48.000 -24.000 12.000 0.000 -24.000 0.000 48.000 -24.000 0.000
3 16  37.720 -4.187 6.000 36.865 -4.047 6.000 37.081 -2.059 0.000
3 16  38.150 -2.234 0.000 37.720 -4.187 6.000 37.081 -2.059 0.000
3 16  38.554 -4.419 6.000 37.720 -4.187 6.000 38.150 -2.234 0.000
3 16  39.193 -2.523 0.000 38.554 -4.419 6.000 38.150 -2.234 0.000
3 16  39.359 -4.739 6.000 38.554 -4.419 6.000 39.193 -2.523 0.000
3 16  40.199 -2.924 0.000 39.359 -4.739 6.000 39.193 -2.523 0.000
3 16  40.125 -5.145 6.000 39.359 -4.739 6.000 40.199 -2.924 0.000
3 16  41.155 -3.431 0.000 40.125 -5.145 6.000 40.199 -2.924 0.000
3 16  40.842 -5.631 6.000 40.125 -5.145 6.000 41.155 -3.431 0.000
3 16  42.052 -4.039 0.000 40.842 -5.631 6.000 41.155 -3.431 0.000
3 16  41.502 -6.192 6.000 40.842 -5.631 6.000 42.052 -4.039 0.000
3 16  42.877 -4.740 0.000 41.502 -6.192 6.000 42.052 -4.039 0.000
3 16  42.097 -6.821 6.000 41.502 -6.192 6.000 42.877 -4.740 0.000
3 16  43.621 -5.526 0.000 42.097 -6.821 6.000 42.877 -4.740 0.000
3 16  42.621 -7.511 6.000 42.097 -6.821 6.000 43.621 -5.526 0.000
3 16  44.277 -6.388 0.000 42.621 -7.511 6.000 43.621 -5.526 0.000
3 16  43.068 -8.253 6.000 42.621 -7.511 6.000 44.277 -6.388 0.000
3 16  44.835 -7.316 0.000 43.068 -8.253 6.000 44.277 -6.388 0.000
3 16  43.432 -9.039 6.000 43.068 -8.253 6.000 44.835 -7.316 0.000
3 16  45.290 -8.299 0.000 43.432 -9.039 6.000 44.835 -7.316 0.000
3 16  43.709 -9.860 6.000 43.432 -9.039 6.000 45.290 -8.299 0.000
3 16  45.636 -9.325 0.000 43.709 -9.860 6.000 45.290 -8.299 0.000
3 16  43.895 -10.706 6.000 43.709 -9.860 6.000 45.636 -9.325 0.000
3 16  45.868 -10.382 0.000 43.895 -10.706 6.000 45.636 -9.325 0.000
3 16  43.988 -11.567 6.000 43.895 -10.706 6.000 45.868 -10.382 0.000
3 16  45.985 -11.459 0.000 43.988 -11.567 6.000 45.868 -10.382 0.000
3 16  45.985 -11.459 0.000 43.988 -12.433 6.000 43.988 -11.567 6.000
3 16  43.988 -12.433 6.000 45.985 -11.459 0.000 45.985 -12.541 0.000
3 16  45.985 -12.541 0.000 43.895 -13.294 6.000 43.988 -12.433 6.000
3 16  45.868 -13.618 0.000 43.895 -13.294 6.000 45.985 -12.541 0.000
3 16  45.868 -13.618 0.000 43.709 -14.140 6.000 43.895 -13.294 6.000
3 16  45.636 -14.675 0.000 43.709 -14.140 6.000 45.868 -13.618 0.000
3 16  45.636 -14.675 0.000 43.432 -14.961 6.000 43.709 -14.140 6.000
3 16  45.290 -15.701 0.000 43.432 -14.961 6.000 45.636 -14.675 0.000
3 16  45.290 -15.701 0.000 43.068 -15.747 6.000 43.432 -14.961 6.000
3 16  44.835 -16.684 0.000 43.068 -15.747 6.000 45.290 -15.701 0.000
3 16  44.835 -16.684 0.000 42.621 -16.489 6.000 43.068 -15.747 6.000
3 16  44.835 -16.684 0.000 44.277 -17.612 0.000 42.621 -16.489 6.000
3 16  44.277 -17.612 0.000 42.097 -17.179 6.000 42.621 -16.489 6.000
3 16  44.277 -17.612 0.000 43.621 -18.474 0.000 42.097 -17.179 6.000
3 16  43.621 -18.474 0.000 41.502 -17.808 6.000 42.097 -17.179 6.000
3 16  43.621 -18.474 0.000 42.877 -19.260 0.000 41.502 -17.808 6.000
3 16  42.877 -19.260 0.000 40.842 -18.369 6.000 41.502 -17.808 6.000
3 16  42.877 -19.260 0.000 42.052 -19.961 0.000 40.842 -18.369 6.000
3 16  42.052 -19.961 0.000 40.125 -18.855 6.000 40.842 -18.369 6.000
3 16  42.052 -19.961 0.000 41.155 -20.569 0.000 40.125 -18.855 6.000
3 16  41.155 -20.569 0.000 39.359 -19.261 6.000 40.125 -18.855 6.000
3 16  41.155 -20.569 0.000 40.199 -21.076 0.000 39.359 -19.261 6.000
3 16  40.199 -21.076 0.000 38.554 -19.581 6.000 39.359 -19.261 6.000
3 16  40.199 -21.076 0.000 39.193 -21.477 0.000 38.554 -19.581 6.000
3 16  39.193 -21.477 0.000 37.720 -19.813 6.000 38.554 -19.581 6.000
3 16  39.193 -21.477 0.000 38.150 -21.766 0.000 37.720 -19.813 6.000
3 16  38.150 -21.766 0.000 36.865 -19.953 6.000 37.720 -19.813 6.000
3 16  38.150 -21.766 0.000 37.081 -21.941 0.000 36.865 -19.953 6.000
3 16  37.081 -21.941 0.000 36.000 -20.000 6.000 36.865 -19.953 6.000
3 16  37.081 -21.941 0.000 36.000 -22.000 0.000 36.000 -20.000 6.000
3 16  36.000 -20.000 6.000 36.000 -22.000 0.000 35.135 -19.953 6.000
3 16  36.000 -22.000 0.000 34.919 -21.941 0.000 35.135 -19.953 6.000
3 16  35.135 -19.953 6.000 34.919 -21.941 0.000 34.280 -19.813 6.000
3 16  34.919 -21.941 0.000 33.850 -21.766 0.000 34.280 -19.813 6.000
3 16  34.280 -19.813 6.000 33.850 -21.766 0.000 33.445 -19.581 6.000
3 16  33.850 -21.766 0.000 32.807 -21.477 0.000 33.445 -19.581 6.000
3 16  33.445 -19.581 6.000 32.807 -21.477 0.000 32.641 -19.261 6.000
3 16  32.807 -21.477 0.000 31.801 -21.076 0.000 32.641 -19.261 6.000
3 16  32.641 -19.261 6.000 31.801 -21.076 0.000 31.875 -18.855 6.000
3 16  31.801 -21.076 0.000 30.845 -20.569 0.000 31.875 -18.855 6.000
3 16  31.875 -18.855 6.000 30.845 -20.569 0.000 31.159 -18.369 6.000
3 16  30.845 -20.569 0.000 29.948 -19.961 0.000 31.159 -18.369 6.000
3 16  31.159 -18.369 6.000 29.948 -19.961 0.000 30.498 -17.808 6.000
3 16  29.948 -19.961 0.000 29.123 -19.260 0.000 30.498 -17.808 6.000
3 16  30.498 -17.808 6.000 29.123 -19.260 0.000 29.903 -17.179 6.000
3 16  29.123 -19.260 0.000 28.378 -18.474 0.000 29.903 -17.179 6.000
3 16  29.903 -17.179 6.000 28.378 -18.474 0.000 29.379 -16.489 6.000
3 16  28.378 -18.474 0.000 27.723 -17.612 0.000 29.379 -16.489 6.000
3 16  29.379 -16.489 6.000 27.723 -17.612 0.000 28.932 -15.747 6.000
3 16  27.723 -17.612 0.000 27.165 -16.684 0.000 28.932 -15.747 6.000
3 16  28.932 -15.747 6.000 27.165 -16.684 0.000 28.568 -14.961 6.000
3 16  27.165 -16.684 0.000 26.710 -15.701 0.000 28.568 -14.961 6.000
3 16  28.568 -14.961 6.000 26.710 -15.701 0.000 28.291 -14.140 6.000
3 16  26.710 -15.701 0.000 26.364 -14.675 0.000 28.291 -14.140 6.000
3 16  28.291 -14.140 6.000 26.364 -14.675 0.000 28.105 -13.294 6.000
3 16  26.364 -14.675 0.000 26.132 -13.618 0.000 28.105 -13.294 6.000
3 16  28.105 -13.294 6.000 26.132 -13.618 0.000 28.012 -12.433 6.000
3 16  26.132 -13.618 0.000 26.015 -12.541 0.000 28.012 -12.433 6.000
3 16  28.012 -12.433 6.000 26.015 -11.459 0.000 28.012 -11.567 6.000
3 16  26.015 -11.459 0.000 28.012 -12.433 6.000 26.015 -12.541 0.000
3 16  28.012 -11.567 6.000 26.015 -11.459 0.000 28.105 -10.706 6.000
3 16  28.105 -10.706 6.000 26.015 -11.459 0.000 26.132 -10.382 0.000
3 16  28.105 -10.706 6.000 26.132 -10.382 0.000 28.291 -9.860 6.000
3 16  28.291 -9.860 6.000 26.132 -10.382 0.000 26.364 -9.325 0.000
3 16  28.291 -9.860 6.000 26.364 -9.325 0.000 28.568 -9.039 6.000
3 16  28.568 -9.039 6.000 26.364 -9.325 0.000 26.710 -8.299 0.000
3 16  28.568 -9.039 6.000 26.710 -8.299 0.000 28.932 -8.253 6.000
3 16  28.932 -8.253 6.000 26.710 -8.299 0.000 27.165 -7.316 0.000
3 16  29.379 -7.511 6.000 28.932 -8.253 6.000 27.165 -7.316 0.000
3 16  29.379 -7.511 6.000 27.165 -7.316 0.000 27.723 -6.388 0.000
3 16  29.903 -6.821 6.000 29.379 -7.511 6.000 27.723 -6.388 0.000
3 16  29.903 -6.821 6.000 27.723 -6.388 0.000 28.378 -5.526 0.000
3 16  30.498 -6.192 6.000 29.903 -6.821 6.000 28.378 -5.526 0.000
3 16  30.498 -6.192 6.000 28.378 -5.526 0.000 29.123 -4.740 0.000
3 16  31.159 -5.631 6.000 30.498 -6.192 6.000 29.123 -4.740 0.000
3 16  31.159 -5.631 6.000 29.123 -4.740 0.000 29.948 -4.039 0.000
3 16  31.875 -5.145 6.000 31.159 -5.631 6.000 29.948 -4.039 0.000
3 16  31.875 -5.145 6.000 29.948 -4.039 0.000 30.845 -3.431 0.000
3 16  32.641 -4.739 6.000 31.875 -5.145 6.000 30.845 -3.431 0.000
3 16  32.641 -4.739 6.000 30.845 -3.431 0.000 31.801 -2.924 0.000
3 16  33.445 -4.419 6.000 32.641 -4.739 6.000 31.801 -2.924 0.000
3 16  33.445 -4.419 6.000 31.801 -2.924 0.000 32.807 -2.523 0.000
3 16  34.280 -4.187 6.000 33.445 -4.419 6.000 32.807 -2.523 0.000
3 16  34.280 -4.187 6.000 32.807 -2.523 0.000 33.850 -2.234 0.000
3 16  35.135 -4.047 6.000 34.280 -4.187 6.000 33.850 -2.234 0.000
3 16  35.135 -4.047 6.000 33.850 -2.234 0.000 34.919 -2.059 0.000
3 16  36.000 -4.000 6.000 35.135 -4.047 6.000 34.919 -2.059 0.000
3 16  36.000 -4.000 6.000 34.919 -2.059 0.000 36.000 -2.000 0.000
3 16  36.865 -4.047 6.000 36.000 -4.000 6.000 36.000 -2.000 0.000
3 16  37.081 -2.059 0.000 36.865 -4.047 6.000 36.000 -2.000 0.000
3 16  36.865 -19.953 6.000 37.081 -21.941 12.000 37.720 -19.813 6.000
3 16  37.081 -21.941 12.000 38.150 -21.766 12.000 37.720 -19.813 6.000
3 16  37.720 -19.813 6.000 38.150 -21.766 12.000 38.554 -19.581 6.000
3 16  38.150 -21.766 12.000 39.193 -21.477 12.000 38.554 -19.581 6.000
3 16  38.554 -19.581 6.000 39.193 -21.477 12.000 39.359 -19.261 6.000
3 16  39.193 -21.477 12.000 40.199 -21.076 12.000 39.359 -19.261 6.000
3 16  39.359 -19.261 6.000 40.199 -21.076 12.000 40.125 -18.855 6.000
3 16  40.199 -21.076 12.000 41.155 -20.569 12.000 40.125 -18.855 6.000
3 16  40.125 -18.855 6.000 41.155 -20.569 12.000 40.842 -18.369 6.000
3 16  41.155 -20.569 12.000 42.052 -19.961 12.000 40.842 -18.369 6.000
3 16  40.842 -18.369 6.000 42.052 -19.961 12.000 41.502 -17.808 6.000
3 16  42.052 -19.961 12.000 42.877 -19.260 12.000 41.502 -17.808 6.000
3 16  41.502 -17.808 6.000 42.877 -19.260 12.000 42.097 -17.179 6.000
3 16  42.877 -19.260 12.000 43.621 -18.474 12.000 42.097 -17.179 6.000
3 16  42.097 -17.179 6.000 43.621 -18.474 12.000 42.621 -16.489 6.000
3 16  43.621 -18.474 12.000 44.277 -17.612 12.000 42.621 -16.489 6.000
3 16  42.621 -16.489 6.000 44.277 -17.612 12.000 43.068 -15.747 6.000
3 16  44.277 -17.612 12.000 44.835 -16.684 12.000 43.068 -15.747 6.000
3 16  43.068 -15.747 6.000 44.835 -16.684 12.000 43.432 -14.961 6.000
3 16  44.835 -16.684 12.000 45.290 -15.701 12.000 43.432 -14.961 6.000
3 16  43.432 -14.961 6.000 45.290 -15.701 12.000 43.709 -14.140 6.000
3 16  45.290 -15.701 12.000 45.636 -14.675 12.000 43.709 -14.140 6.000
3 16  43.709 -14.140 6.000 45.636 -14.675 12.000 43.895 -13.294 6.000
3 16  45.636 -14.675 12.000 45.868 -13.618 12.000 43.895 -13.294 6.000
3 16  43.895 -13.294 6.000 45.868 -13.618 12.000 43.988 -12.433 6.000
3 16  45.868 -13.618 12.000 45.985 -12.541 12.000 43.988 -12.433 6.000
3 16  43.988 -12.433 6.000 45.985 -11.459 12.000 43.988 -11.567 6.000
3 16  45.985 -11.459 12.000 43.988 -12.433 6.000 45.985 -12.541 12.000
3 16  43.988 -11.567 6.000 45.985 -11.459 12.000 43.895 -10.706 6.000
3 16  43.895 -10.706 6.000 45.985 -11.459 12.000 45.868 -10.382 12.000
3 16  43.895 -10.706 6.000 45.868 -10.382 12.000 43.709 -9.860 6.000
3 16  43.709 -9.860 6.000 45.868 -10.382 12.000 45.636 -9.325 12.000
3 16  43.709 -9.860 6.000 45.636 -9.325 12.000 43.432 -9.039 6.000
3 16  43.432 -9.039 6.000 45.636 -9.325 12.000 45.290 -8.299 12.000
3 16  43.432 -9.039 6.000 45.290 -8.299 12.000 43.068 -8.253 6.000
3 16  43.068 -8.253 6.000 45.290 -8.299 12.000 44.835 -7.316 12.000
3 16  42.621 -7.511 6.000 43.068 -8.253 6.000 44.835 -7.316 12.000
3 16  42.621 -7.511 6.000 44.835 -7.316 12.000 44.277 -6.388 12.000
3 16  42.097 -6.821 6.000 42.621 -7.511 6.000 44.277 -6.388 12.000
3 16  42.097 -6.821 6.000 44.277 -6.388 12.000 43.621 -5.526 12.000
3 16  41.502 -6.192 6.000 42.097 -6.821 6.000 43.621 -5.526 12.000
3 16  41.502 -6.192 6.000 43.621 -5.526 12.000 42.877 -4.740 12.000
3 16  40.842 -5.631 6.000 41.502 -6.192 6.000 42.877 -4.740 12.000
3 16  40.842 -5.631 6.000 42.877 -4.740 12.000 42.052 -4.039 12.000
3 16  40.125 -5.145 6.000 40.842 -5.631 6.000 42.052 -4.039 12.000
3 16  40.125 -5.145 6.000 42.052 -4.039 12.000 41.155 -3.431 12.000
3 16  39.359 -4.739 6.000 40.125 -5.145 6.000 41.155 -3.431 12.000
3 16  39.359 -4.739 6.000 41.155 -3.431 12.000 40.199 -2.924 12.000
3 16  38.554 -4.419 6.000 39.359 -4.739 6.000 40.199 -2.924 12.000
3 16  38.554 -4.419 6.000 40.199 -2.924 12.000 39.193 -2.523 12.000
3 16  37.720 -4.187 6.000 38.554 -4.419 6.000 39.193 -2.523 12.000
3 16  37.720 -4.187 6.000 39.193 -2.523 12.000 38.150 -2.234 12.000
3 16  36.865 -4.047 6.000 37.720 -4.187 6.000 38.150 -2.234 12.000
3 16  36.865 -4.047 6.000 38.150 -2.234 12.000 37.081 -2.059 12.000
3 16  36.000 -4.000 6.000 36.865 -4.047 6.000 37.081 -2.059 12.000
3 16  36.000 -4.000 6.000 37.081 -2.059 12.000 36.000 -2.000 12.000
3 16  35.135 -4.047 6.000 36.000 -4.000 6.000 36.000 -2.000 12.000
3 16  34.919 -2.059 12.000 35.135 -4.047 6.000 36.000 -2.000 12.000
3 16  34.280 -4.187 6.000 35.135 -4.047 6.000 34.919 -2.059 12.000
3 16  33.850 -2.234 12.000 34.280 -4.187 6.000 34.919 -2.059 12.000
3 16  33.445 -4.419 6.000 34.280 -4.187 6.000 33.850 -2.234 12.000
3 16  32.807 -2.523 12.000 33.445 -4.419 6.000 33.850 -2.234 12.000
3 16  32.641 -4.739 6.000 33.445 -4.419 6.000 32.807 -2.523 12.000
3 16  31.801 -2.924 12.000 32.641 -4.739 6.000 32.807 -2.523 12.000
3 16  31.875 -5.145 6.000 32.641 -4.739 6.000 31.801 -2.924 12.000
3 16  30.845 -3.431 12.000 31.875 -5.145 6.000 31.801 -2.924 12.000
3 16  31.159 -5.631 6.000 31.875 -5.145 6.000 30.845 -3.431 12.000
3 16  29.948 -4.039 12.000 31.159 -5.631 6.000 30.845 -3.431 12.000
3 16  30.498 -6.192 6.000 31.159 -5.631 6.000 29.948 -4.039 12.000
3 16  29.123 -4.740 12.000 30.498 -6.192 6.000 29.948 -4.039 12.000
3 16  29.903 -6.821 6.000 30.498 -6.192 6.000 29.123 -4.740 12.000
3 16  28.378 -5.526 12.000 29.903 -6.821 6.000 29.123 -4.740 12.000
3 16  29.379 -7.511 6.000 29.903 -6.821 6.000 28.378 -5.526 12.000
3 16  27.723 -6.388 12.000 29.379 -7.511 6.000 28.378 -5.526 12.000
3 16  28.932 -8.253 6.000 29.379 -7.511 6.000 27.723 -6.388 12.000
3 16  27.165 -7.316 12.000 28.932 -8.253 6.000 27.723 -6.388 12.000
3 16  28.568 -9.039 6.000 28.932 -8.253 6.000 27.165 -7.316 12.000
3 16  26.710 -8.299 12.000 28.568 -9.039 6.000 27.165 -7.316 12.000
3 16  28.291 -9.860 6.000 28.568 -9.039 6.000 26.710 -8.299 12.000
3 16  26.364 -9.325 12.000 28.291 -9.860 6.000 26.710 -8.299 12.000
3 16  28.105 -10.706 6.000 28.291 -9.860 6.000 26.364 -9.325 12.000
3 16  26.132 -10.382 12.000 28.105 -10.706 6.000 26.364 -9.325 12.000
3 16  28.012 -11.567 6.000 28.105 -10.706 6.000 26.132 -10.382 12.000
3 16  26.015 -11.459 12.000 28.012 -11.567 6.000 26.132 -10.382 12.000
3 16  26.015 -11.459 12.000 28.012 -12.433 6.000 28.012 -11.567 6.000
3 16  28.012 -12.433 6.000 26.015 -11.459 12.000 26.015 -12.541 12.000
3 16  26.015 -12.541 12.000 28.105 -13.294 6.000 28.012 -12.433 6.000
3 16  26.132 -13.618 12.000 28.105 -13.294 6.000 26.015 -12.541 12.000
3 16  26.132 -13.618 12.000 28.291 -14.140 6.000 28.105 -13.294 6.000
3 16  26.364 -14.675 12.000 28.291 -14.140 6.000 26.132 -13.618 12.000
3 16  26.364 -14.675 12.000 28.568 -14.961 6.000 28.291 -14.140 6.000
3 16  26.710 -15.701 12.000 28.568 -14.961 6.000 26.364 -14.675 12.000
3 16  26.710 -15.701 12.000 28.932 -15.747 6.000 28.568 -14.961 6.000
3 16  27.165 -16.684 12.000 28.932 -15.747 6.000 26.710 -15.701 12.000
3 16  27.165 -16.684 12.000 29.379 -16.489 6.000 28.932 -15.747 6.000
3 16  27.165 -16.684 12.000 27.723 -17.612 12.000 29.379 -16.489 6.000
3 16  27.723 -17.612 12.000 29.903 -17.179 6.000 29.379 -16.489 6.000
3 16  27.723 -17.612 12.000 28.378 -18.474 12.000 29.903 -17.179 6.000
3 16  28.378 -18.474 12.000 30.498 -17.808 6.000 29.903 -17.179 6.000
3 16  28.378 -18.474 12.000 29.123 -19.260 12.000 30.498 -17.808 6.000
3 16  29.123 -19.260 12.000 31.159 -18.369 6.000 30.498 -17.808 6.000
3 16  29.123 -19.260 12.000 29.948 -19.961 12.000 31.159 -18.369 6.000
3 16  29.948 -19.961 12.000 31.875 -18.855 6.000 31.159 -18.369 6.000
3 16  29.948 -19.961 12.000 30.845 -20.569 12.000 31.875 -18.855 6.000
3 16  30.845 -20.569 12.000 32.641 -19.261 6.000 31.875 -18.855 6.000
3 16  30.845 -20.569 12.000 31.801 -21.076 12.000 32.641 -19.261 6.000
3 16  31.801 -21.076 12.000 33.445 -19.581 6.000 32.641 -19.261 6.000
3 16  31.801 -21.076 12.000 32.807 -21.477 12.000 33.445 -19.581 6.000
3 16  32.807 -21.477 12.000 34.280 -19.813 6.000 33.445 -19.581 6.000
3 16  32.807 -21.477 12.000 33.850 -21.766 12.000 34.280 -19.813 6.000
3 16  33.850 -21.766 12.000 35.135 -19.953 6.000 34.280 -19.813 6.000
3 16  33.850 -21.766 12.000 34.919 -21.941 12.000 35.135 -19.953 6.000
3 16  34.919 -21.941 12.000 36.000 -20.000 6.000 35.135 -19.953 6.000
3 16  34.919 -21.941 12.000 36.000 -22.000 12.000 36.000 -20.000 6.000
3 16  36.000 -20.000 6.000 36.000 -22.000 12.000 36.865 -19.953 6.000
3 16  36.000 -22.000 12.000 37.081 -21.941 12.000 36.865 -19.953 6.000
3 16  48.000 -24.000 12.000 48.000 0.000 0.000 48.000 0.000 12.000
3 16  48.000 0.000 0.000 48.000 -24.000 12.000 48.000 -24.000 0.000
