solid Mesh
  facet normal -1 -9.75095e-17 0
    outer loop
      vertex 8.1908e-16 -8.39998 4.8
      vertex 0 1.53959e-5 4.8
      vertex 8.1908e-16 -8.39998 0
    endloop
  endfacet
  facet normal -1 -9.75095e-17 0
    outer loop
      vertex 0 1.53959e-5 4.8
      vertex 0 1.53959e-5 0
      vertex 8.1908e-16 -8.39998 0
    endloop
  endfacet
  facet normal 0 1 0
    outer loop
      vertex 12.75 -23.55 3.6
      vertex 43.75 -23.55 3.6
      vertex 12.75 -23.55 0
    endloop
  endfacet
  facet normal 0 1 0
    outer loop
      vertex 43.75 -23.55 3.6
      vertex 43.75 -23.55 0
      vertex 12.75 -23.55 0
    endloop
  endfacet
  facet normal 0 -1 0
    outer loop
      vertex 43.75 -5.24998 3.6
      vertex 12.75 -5.24998 3.6
      vertex 43.75 -5.24998 0
    endloop
  endfacet
  facet normal 0 -1 0
    outer loop
      vertex 12.75 -5.24998 3.6
      vertex 12.75 -5.24998 0
      vertex 43.75 -5.24998 0
    endloop
  endfacet
  facet normal -1 0 0
    outer loop
      vertex 43.75 -23.55 3.6
      vertex 43.75 -5.24998 3.6
      vertex 43.75 -23.55 0
    endloop
  endfacet
  facet normal -1 0 0
    outer loop
      vertex 43.75 -5.24998 3.6
      vertex 43.75 -5.24998 0
      vertex 43.75 -23.55 0
    endloop
  endfacet
  facet normal 0 1 0
    outer loop
      vertex 6.75 -20.4 3.6
      vertex 6.75 -20.4 0
      vertex 2.75 -20.4 3.6
    endloop
  endfacet
  facet normal 0 1 0
    outer loop
      vertex 6.75 -20.4 0
      vertex 4.33681e-16 -20.4 0
      vertex 2.75 -20.4 3.6
    endloop
  endfacet
  facet normal 0 1 0
    outer loop
      vertex 2.75 -20.4 3.6
      vertex 4.33681e-16 -20.4 0
      vertex 2.75 -20.4 4.8
    endloop
  endfacet
  facet normal 0 1 0
    outer loop
      vertex 4.33681e-16 -20.4 0
      vertex 4.33681e-16 -20.4 4.8
      vertex 2.75 -20.4 4.8
    endloop
  endfacet
  facet normal 1 0 0
    outer loop
      vertex 12.75 -5.24998 3.6
      vertex 12.75 -23.55 3.6
      vertex 12.75 -5.24998 0
    endloop
  endfacet
  facet normal 1 0 0
    outer loop
      vertex 12.75 -23.55 3.6
      vertex 12.75 -23.55 0
      vertex 12.75 -5.24998 0
    endloop
  endfacet
  facet normal 0 -1 0
    outer loop
      vertex 2.75 -8.39998 4.8
      vertex 8.1908e-16 -8.39998 4.8
      vertex 2.75 -8.39998 3.6
    endloop
  endfacet
  facet normal 0 -1 0
    outer loop
      vertex 8.1908e-16 -8.39998 4.8
      vertex 8.1908e-16 -8.39998 0
      vertex 2.75 -8.39998 3.6
    endloop
  endfacet
  facet normal 0 -1 0
    outer loop
      vertex 2.75 -8.39998 3.6
      vertex 8.1908e-16 -8.39998 0
      vertex 6.75 -8.39998 3.6
    endloop
  endfacet
  facet normal 0 -1 0
    outer loop
      vertex 8.1908e-16 -8.39998 0
      vertex 6.75 -8.39998 0
      vertex 6.75 -8.39998 3.6
    endloop
  endfacet
  facet normal -1 0 0
    outer loop
      vertex 6.75 -20.4 3.6
      vertex 6.75 -8.39998 3.6
      vertex 6.75 -20.4 0
    endloop
  endfacet
  facet normal -1 0 0
    outer loop
      vertex 6.75 -8.39998 3.6
      vertex 6.75 -8.39998 0
      vertex 6.75 -20.4 0
    endloop
  endfacet
  facet normal 0 1 0
    outer loop
      vertex 2.75 -26.55 4.8
      vertex 45.25 -26.55 4.8
      vertex 2.75 -26.55 3.6
    endloop
  endfacet
  facet normal 0 1 0
    outer loop
      vertex 45.25 -26.55 4.8
      vertex 45.25 -26.55 3.6
      vertex 2.75 -26.55 3.6
    endloop
  endfacet
  facet normal 0 0 -1
    outer loop
      vertex 6.75 -8.39998 0
      vertex 12.75 -5.24998 0
      vertex 6.75 -20.4 0
    endloop
  endfacet
  facet normal 0 0 -1
    outer loop
      vertex 12.75 -5.24998 0
      vertex 12.75 -23.55 0
      vertex 6.75 -20.4 0
    endloop
  endfacet
  facet normal 0 0 -1
    outer loop
      vertex 6.75 -20.4 0
      vertex 12.75 -23.55 0
      vertex 4.33681e-16 -20.4 0
    endloop
  endfacet
  facet normal 0 0 -1
    outer loop
      vertex 6.75 -8.39998 0
      vertex 8.1908e-16 -8.39998 0
      vertex 12.75 -5.24998 0
    endloop
  endfacet
  facet normal 0 0 -1
    outer loop
      vertex 8.1908e-16 -8.39998 0
      vertex 0 1.53959e-5 0
      vertex 12.75 -5.24998 0
    endloop
  endfacet
  facet normal 0 0 -1
    outer loop
      vertex 12.75 -5.24998 0
      vertex 0 1.53959e-5 0
      vertex 43.75 -5.24998 0
    endloop
  endfacet
  facet normal 0 0 -1
    outer loop
      vertex 0 1.53959e-5 0
      vertex 48 1.53959e-5 0
      vertex 43.75 -5.24998 0
    endloop
  endfacet
  facet normal 0 0 -1
    outer loop
      vertex 43.75 -5.24998 0
      vertex 48 1.53959e-5 0
      vertex 43.75 -23.55 0
    endloop
  endfacet
  facet normal 0 0 -1
    outer loop
      vertex 48 1.53959e-5 0
      vertex 48 -28.8 0
      vertex 43.75 -23.55 0
    endloop
  endfacet
  facet normal 0 0 -1
    outer loop
      vertex 43.75 -23.55 0
      vertex 48 -28.8 0
      vertex 12.75 -23.55 0
    endloop
  endfacet
  facet normal 0 0 -1
    outer loop
      vertex 48 -28.8 0
      vertex -4.3006e-16 -28.8 0
      vertex 12.75 -23.55 0
    endloop
  endfacet
  facet normal 0 0 -1
    outer loop
      vertex 12.75 -23.55 0
      vertex -4.3006e-16 -28.8 0
      vertex 4.33681e-16 -20.4 0
    endloop
  endfacet
  facet normal 0 0 1
    outer loop
      vertex 2.75 -20.4 4.8
      vertex 4.33681e-16 -20.4 4.8
      vertex 2.75 -26.55 4.8
    endloop
  endfacet
  facet normal 0 0 1
    outer loop
      vertex 4.33681e-16 -20.4 4.8
      vertex -4.3006e-16 -28.8 4.8
      vertex 2.75 -26.55 4.8
    endloop
  endfacet
  facet normal 0 0 1
    outer loop
      vertex 2.75 -26.55 4.8
      vertex -4.3006e-16 -28.8 4.8
      vertex 45.25 -26.55 4.8
    endloop
  endfacet
  facet normal 0 0 1
    outer loop
      vertex -4.3006e-16 -28.8 4.8
      vertex 48 -28.8 4.8
      vertex 45.25 -26.55 4.8
    endloop
  endfacet
  facet normal 0 0 1
    outer loop
      vertex 45.25 -26.55 4.8
      vertex 48 -28.8 4.8
      vertex 45.25 -2.24998 4.8
    endloop
  endfacet
  facet normal 0 0 1
    outer loop
      vertex 48 -28.8 4.8
      vertex 48 1.53959e-5 4.8
      vertex 45.25 -2.24998 4.8
    endloop
  endfacet
  facet normal 0 0 1
    outer loop
      vertex 45.25 -2.24998 4.8
      vertex 48 1.53959e-5 4.8
      vertex 2.75 -2.24998 4.8
    endloop
  endfacet
  facet normal 0 0 1
    outer loop
      vertex 48 1.53959e-5 4.8
      vertex 0 1.53959e-5 4.8
      vertex 2.75 -2.24998 4.8
    endloop
  endfacet
  facet normal 0 0 1
    outer loop
      vertex 2.75 -2.24998 4.8
      vertex 0 1.53959e-5 4.8
      vertex 2.75 -8.39998 4.8
    endloop
  endfacet
  facet normal 0 0 1
    outer loop
      vertex 0 1.53959e-5 4.8
      vertex 8.1908e-16 -8.39998 4.8
      vertex 2.75 -8.39998 4.8
    endloop
  endfacet
  facet normal 1 0 0
    outer loop
      vertex 2.75 -20.4 4.8
      vertex 2.75 -26.55 4.8
      vertex 2.75 -20.4 3.6
    endloop
  endfacet
  facet normal 1 0 0
    outer loop
      vertex 2.75 -26.55 4.8
      vertex 2.75 -26.55 3.6
      vertex 2.75 -20.4 3.6
    endloop
  endfacet
  facet normal 1 0 0
    outer loop
      vertex 48 1.53959e-5 4.8
      vertex 48 -28.8 4.8
      vertex 48 1.53959e-5 0
    endloop
  endfacet
  facet normal 1 0 0
    outer loop
      vertex 48 -28.8 4.8
      vertex 48 -28.8 0
      vertex 48 1.53959e-5 0
    endloop
  endfacet
  facet normal -1 0 0
    outer loop
      vertex 45.25 -26.55 3.6
      vertex 45.25 -26.55 4.8
      vertex 45.25 -2.24998 3.6
    endloop
  endfacet
  facet normal -1 0 0
    outer loop
      vertex 45.25 -26.55 4.8
      vertex 45.25 -2.24998 4.8
      vertex 45.25 -2.24998 3.6
    endloop
  endfacet
  facet normal 0 -1 0
    outer loop
      vertex 48 -28.8 4.8
      vertex -4.3006e-16 -28.8 4.8
      vertex 48 -28.8 0
    endloop
  endfacet
  facet normal 0 -1 0
    outer loop
      vertex -4.3006e-16 -28.8 4.8
      vertex -4.3006e-16 -28.8 0
      vertex 48 -28.8 0
    endloop
  endfacet
  facet normal 0 -1 0
    outer loop
      vertex 45.25 -2.24998 3.6
      vertex 45.25 -2.24998 4.8
      vertex 2.75 -2.24998 3.6
    endloop
  endfacet
  facet normal 0 -1 0
    outer loop
      vertex 45.25 -2.24998 4.8
      vertex 2.75 -2.24998 4.8
      vertex 2.75 -2.24998 3.6
    endloop
  endfacet
  facet normal 0 1 0
    outer loop
      vertex 0 1.53959e-5 4.8
      vertex 48 1.53959e-5 4.8
      vertex 0 1.53959e-5 0
    endloop
  endfacet
  facet normal 0 1 0
    outer loop
      vertex 48 1.53959e-5 4.8
      vertex 48 1.53959e-5 0
      vertex 0 1.53959e-5 0
    endloop
  endfacet
  facet normal 1 0 0
    outer loop
      vertex 2.75 -2.24998 4.8
      vertex 2.75 -8.39998 4.8
      vertex 2.75 -2.24998 3.6
    endloop
  endfacet
  facet normal 1 0 0
    outer loop
      vertex 2.75 -8.39998 4.8
      vertex 2.75 -8.39998 3.6
      vertex 2.75 -2.24998 3.6
    endloop
  endfacet
  facet normal 0 0 1
    outer loop
      vertex 12.75 -5.24998 3.6
      vertex 6.75 -8.39998 3.6
      vertex 12.75 -23.55 3.6
    endloop
  endfacet
  facet normal 0 0 1
    outer loop
      vertex 6.75 -8.39998 3.6
      vertex 6.75 -20.4 3.6
      vertex 12.75 -23.55 3.6
    endloop
  endfacet
  facet normal 0 0 1
    outer loop
      vertex 12.75 -23.55 3.6
      vertex 6.75 -20.4 3.6
      vertex 2.75 -20.4 3.6
    endloop
  endfacet
  facet normal 0 0 1
    outer loop
      vertex 2.75 -8.39998 3.6
      vertex 6.75 -8.39998 3.6
      vertex 2.75 -2.24998 3.6
    endloop
  endfacet
  facet normal 0 0 1
    outer loop
      vertex 6.75 -8.39998 3.6
      vertex 12.75 -5.24998 3.6
      vertex 2.75 -2.24998 3.6
    endloop
  endfacet
  facet normal 0 0 1
    outer loop
      vertex 2.75 -2.24998 3.6
      vertex 12.75 -5.24998 3.6
      vertex 45.25 -2.24998 3.6
    endloop
  endfacet
  facet normal 0 0 1
    outer loop
      vertex 12.75 -5.24998 3.6
      vertex 43.75 -5.24998 3.6
      vertex 45.25 -2.24998 3.6
    endloop
  endfacet
  facet normal 0 0 1
    outer loop
      vertex 45.25 -2.24998 3.6
      vertex 43.75 -5.24998 3.6
      vertex 45.25 -26.55 3.6
    endloop
  endfacet
  facet normal 0 0 1
    outer loop
      vertex 43.75 -5.24998 3.6
      vertex 43.75 -23.55 3.6
      vertex 45.25 -26.55 3.6
    endloop
  endfacet
  facet normal 0 0 1
    outer loop
      vertex 43.75 -23.55 3.6
      vertex 12.75 -23.55 3.6
      vertex 45.25 -26.55 3.6
    endloop
  endfacet
  facet normal 0 0 1
    outer loop
      vertex 45.25 -26.55 3.6
      vertex 12.75 -23.55 3.6
      vertex 2.75 -26.55 3.6
    endloop
  endfacet
  facet normal 0 0 1
    outer loop
      vertex 12.75 -23.55 3.6
      vertex 2.75 -20.4 3.6
      vertex 2.75 -26.55 3.6
    endloop
  endfacet
  facet normal -1 1.02826e-16 0
    outer loop
      vertex -4.3006e-16 -28.8 4.8
      vertex 4.33681e-16 -20.4 4.8
      vertex -4.3006e-16 -28.8 0
    endloop
  endfacet
  facet normal -1 1.02826e-16 0
    outer loop
      vertex 4.33681e-16 -20.4 4.8
      vertex 4.33681e-16 -20.4 0
      vertex -4.3006e-16 -28.8 0
    endloop
  endfacet
endsolid Mesh
